{
  "carriers": [
    {
      "hubs": {
        "VDF-H": {
          "nodes": {
            "VDF-N": {
              "name": "NODE-Central-Waterford-1",
              "id": "VDF-N",
              "alarms": [
                {
                  "name": "Unit Unavailable",
                  "remedy": "Equipment is in maintenance or is disconnected. Contact maintenance personnel.",
                  "id": 0,
                  "date": "Oct 18, 2019 9:50:55 AM",
                  "active": true
                }
              ]
            }
          },
          "name": "HUB-Central-Waterford",
          "id": "VDF-H",
          "alarms": [
            {
              "name": "Unit Unavailable",
              "remedy": "Equipment is in maintenance or is disconnected. Contact maintenance personnel.",
              "id": 0,
              "date": "Oct 18, 2019 9:50:55 AM",
              "active": true
            }
          ]
        }
      },
      "name": "vodafone",
      "id": "VDF"
    }
  ]
}
